[
  {
    "nomemp": "Mineras unidas S.A.C",
    "nomusu": "Carlos U",
    "tipco0": "C",
    "daco0": "nobody@fake.com",
    "tipco1": "C",
    "daco1": "nobody@fake.com",
    "tipco2": "C",
    "daco2": "nobody@fake.com",
    "tipco3": "C",
    "daco3": "nobody@fake.com"
  },
  {
    "nomemp": "Mineras unidas S.A.C",
    "nomusu": "Jose P",
    "tipco0": "C",
    "daco0": "nobody@fake.com",
    "tipco1": "C",
    "daco1": "nobody@fake.com"
  },
  {}
]